<?xml version="1.0" encoding="utf-8"?>
<!-- Generator: Adobe Illustrator 16.0.0, SVG Export Plug-In . SVG Version: 6.00 Build 0)  -->
<!DOCTYPE svg PUBLIC "-//W3C//DTD SVG 1.1//EN" "http://www.w3.org/Graphics/SVG/1.1/DTD/svg11.dtd">
<svg version="1.1" id="Capa_1" xmlns="http://www.w3.org/2000/svg" xmlns:xlink="http://www.w3.org/1999/xlink" x="0px" y="0px"
	 width="100px" height="100px" viewBox="0 0 100 100" enable-background="new 0 0 100 100" xml:space="preserve">
<g>
	<path d="M51.234,71.471c-0.317,0.344-0.766,0.541-1.234,0.541c-0.47,0-0.917-0.197-1.235-0.541
		c-0.138-0.152-2.552-2.797-5.626-6.641l-13.892,4.764l20.708,7.121l20.797-7.127l-13.879-4.775
		C53.794,68.666,51.373,71.318,51.234,71.471z"/>
	<path d="M55.255,38.998c0-2.898-2.357-5.256-5.255-5.256c-2.898,0-5.255,2.357-5.255,5.256c0,2.896,2.357,5.254,5.255,5.254
		C52.897,44.252,55.255,41.895,55.255,38.998z"/>
	<path d="M66.792,39.977c0-9.258-7.534-16.791-16.792-16.791c-9.259,0-16.792,7.533-16.792,16.791
		c0,7.254,11.159,21.447,16.792,27.854C55.631,61.422,66.792,47.227,66.792,39.977z M41.397,38.998c0-4.744,3.859-8.604,8.603-8.604
		c4.743,0,8.603,3.859,8.603,8.604c0,4.742-3.859,8.602-8.603,8.602C45.256,47.6,41.397,43.74,41.397,38.998z"/>
	<path d="M50,0.5C22.662,0.5,0.5,22.662,0.5,50S22.662,99.5,50,99.5S99.5,77.338,99.5,50S77.338,0.5,50,0.5z M76.45,71.174
		l-25.952,8.895c-0.176,0.061-0.359,0.092-0.542,0.092c-0.185,0-0.368-0.031-0.544-0.092l-25.862-8.895
		c-0.676-0.232-1.13-0.869-1.129-1.584s0.455-1.352,1.131-1.584l17.411-5.967c-0.51-0.67-1.027-1.361-1.545-2.068
		c-6.34-8.676-9.555-15.4-9.555-19.994c0-11.104,9.034-20.139,20.139-20.139s20.139,9.035,20.139,20.139
		c0,4.594-3.216,11.318-9.555,19.994c-0.515,0.703-1.026,1.389-1.533,2.053l17.4,5.984c0.675,0.232,1.129,0.869,1.129,1.584
		S77.126,70.941,76.45,71.174z"/>
</g>
</svg>
