<?xml version="1.0" encoding="utf-8"?>
<!-- Generator: Adobe Illustrator 16.0.0, SVG Export Plug-In . SVG Version: 6.00 Build 0)  -->
<!DOCTYPE svg PUBLIC "-//W3C//DTD SVG 1.1//EN" "http://www.w3.org/Graphics/SVG/1.1/DTD/svg11.dtd">
<svg version="1.1" id="Capa_1" xmlns="http://www.w3.org/2000/svg" xmlns:xlink="http://www.w3.org/1999/xlink" x="0px" y="0px"
	 width="100px" height="100px" viewBox="0 0 100 100" enable-background="new 0 0 100 100" xml:space="preserve">
<g>
	<polygon points="30.494,72.293 59.586,72.293 45.04,57.748 	"/>
	<path d="M43.478,28.966c0-3.033-2.468-5.501-5.501-5.501c-3.034,0-5.502,2.468-5.502,5.501c0,1.966,2.923,6.189,5.502,9.246
		C40.555,35.155,43.478,30.932,43.478,28.966z M35.312,28.976c0-1.54,1.249-2.788,2.788-2.788s2.788,1.248,2.788,2.788
		s-1.249,2.788-2.788,2.788S35.312,30.516,35.312,28.976z"/>
	<path d="M44.572,34.48c-0.505,0.832-5.369,7.075-5.443,7.157c-0.296,0.323-0.714,0.507-1.153,0.507s-0.856-0.184-1.152-0.507
		c-0.075-0.082-4.938-6.325-5.443-7.157h-3.096v23.599L51.881,34.48H44.572z"/>
	<path d="M49.97,50.671c-0.968-1.048-0.257-2.028-0.031-2.239c-0.001,0,13.949-13.951,13.949-13.951h-7.586L28.284,62.499v7.585
		l15.651-15.652c0.61-0.61,1.6-0.61,2.21,0l17.86,17.861h7.585L49.97,50.671C49.97,50.671,49.97,50.671,49.97,50.671z"/>
	<rect x="55.228" y="44.767" transform="matrix(0.707 0.7072 -0.7072 0.707 52.6102 -27.9159)" width="9.535" height="9.537"/>
	<path d="M50,0.5C22.662,0.5,0.5,22.662,0.5,50.001C0.5,77.338,22.662,99.5,50,99.5s49.5-22.162,49.5-49.499
		C99.5,22.662,77.338,0.5,50,0.5z M77.136,73.856c0,0.863-0.7,1.562-1.563,1.562H26.674c-1.619-0.079-1.516-1.647-1.516-1.647
		V32.918c0-0.863,0.7-1.563,1.562-1.563h3.108c-0.32-0.889-0.48-1.684-0.48-2.389c0-4.757,3.87-8.627,8.627-8.627
		c4.756,0,8.627,3.87,8.627,8.627c0,0.705-0.16,1.5-0.48,2.389h29.449c0.863,0,1.563,0.7,1.563,1.563V73.856z"/>
	<path d="M62.206,40.582l7.848,7.848c0.61,0.61,0.61,1.6,0,2.21l-7.848,7.849l11.805,11.804V34.48h-5.703L62.206,40.582z"/>
</g>
</svg>
