<svg version="1.1" id="Capa_1" xmlns="http://www.w3.org/2000/svg" xmlns:xlink="http://www.w3.org/1999/xlink" x="0px" y="0px"
	 width="100px" height="100px" viewBox="0 0 100 100" enable-background="new 0 0 100 100" xml:space="preserve" fill="#ffc915">
<g>
	<path d="M66.076,63.83c-4.675,0-8.479,3.804-8.479,8.479s3.804,8.479,8.479,8.479s8.478-3.804,8.478-8.479
		S70.751,63.83,66.076,63.83z M70.576,76.327c-1.154,1.436-2.707,2.227-4.371,2.227c-1.663,0-3.216-0.791-4.37-2.227
		c-0.318-0.395-0.255-0.976,0.142-1.294c0.38-0.308,0.985-0.239,1.294,0.142c0.797,0.991,1.839,1.537,2.935,1.537
		c1.097,0,2.139-0.546,2.936-1.538c0.307-0.381,0.913-0.448,1.295-0.14C70.83,75.352,70.894,75.932,70.576,76.327z"/>
	<path d="M48.664,37.707c-4.89,0-9.174-3.282-10.483-7.915H22.852v8.309h10.1c0.552,0,1,0.447,1,1v30.164h16.867
		c1.205-6.366,6.214-11.373,12.574-12.574v-17.59c0-0.553,0.447-1,1-1h10.101v-8.309H59.16
		C57.833,34.424,53.543,37.707,48.664,37.707z"/>
	<path d="M50,0.5C22.662,0.5,0.5,22.662,0.5,50.001C0.5,77.338,22.662,99.5,50,99.5s49.5-22.162,49.5-49.499
		C99.5,22.662,77.338,0.5,50,0.5z M66.076,83.287c-6.063,0-10.979-4.915-10.979-10.979S60.013,61.33,66.076,61.33
		c6.062,0,10.978,4.915,10.978,10.979S72.139,83.287,66.076,83.287z M77.838,39.101c0,1.296-1.05,2.346-2.345,2.346h-8.755v16.097
		c0,1.177-0.873,2.171-2.039,2.324c-5.566,0.732-9.968,5.135-10.705,10.705c-0.154,1.166-1.148,2.037-2.324,2.037H32.951
		c-1.295,0-2.345-1.05-2.345-2.345V41.446h-8.755c-1.294,0-2.345-1.05-2.345-2.346V28.792c0-1.295,1.05-2.345,2.345-2.345h17.115
		c1.116,0,2.078,0.787,2.298,1.881c0.706,3.496,3.816,6.033,7.399,6.033c3.575,0,6.695-2.542,7.418-6.043
		c0.224-1.09,1.183-1.871,2.295-1.871h17.116c1.295,0,2.345,1.05,2.345,2.345V39.101z"/>
</g>
</svg>
