<svg xmlns="http://www.w3.org/2000/svg" viewBox="0 40 800 550" fill="#FF4705">
<g>
	<g>
		<path d="M562.64,269.197c-10.717,0-20.041,3.858-27.715,11.468c-7.61,7.611-11.469,16.936-11.469,27.714v54.44
			c0,1.964,1.184,3.046,3.332,3.046c1.903,0,2.952-1.082,2.952-3.046v-54.44c0-9.002,3.252-16.787,9.665-23.137
			c6.414-6.353,14.231-9.574,23.234-9.574c9.002,0,16.787,3.22,23.142,9.574c6.412,6.352,9.664,14.136,9.664,23.137v54.44
			c0,1.964,1.049,3.046,2.953,3.046h0.378c1.903,0,2.952-1.082,2.952-3.046v-54.44c0-10.78-3.858-20.104-11.468-27.714
			C582.65,273.056,573.357,269.197,562.64,269.197z"/>
		<path d="M702.991,329.485c-1.599,0-2.677,0.741-3.113,2.127c-2.971,8.354-8.146,15.193-15.389,20.328
			c-7.235,5.196-15.391,7.831-24.239,7.831c-13.551,0-24.688-5.396-33.117-16.057c-1.671-1.9-3.062-4.019-4.142-6.302
			c0.812-0.349,1.822-0.785,3.046-1.317c1.368-0.686,2.501-1.222,3.376-1.597c8.297-3.707,20.272-9.108,36.61-16.512
			c15.761-7.129,28.14-12.684,36.792-16.51c0.697-0.309,1.201-0.917,1.499-1.808c0.228-0.685,0.158-1.442-0.209-2.253
			c-3.922-8.54-9.92-15.437-17.825-20.497c-7.907-5.124-16.665-7.722-26.03-7.722c-13.285,0-24.769,4.779-34.129,14.203
			c-9.426,9.362-14.205,20.846-14.205,34.132c0,13.289,4.779,24.772,14.203,34.129c9.359,9.426,20.843,14.205,34.131,14.205
			c10.188,0,19.585-2.982,27.935-8.866c8.348-5.943,14.281-13.802,17.636-23.355c0.372-1.044,0.222-2.027-0.427-2.89
			C704.864,329.925,704.034,329.485,702.991,329.485z M660.25,275.858c12.867,0,23.658,5.02,32.085,14.93
			c1.625,1.8,3.218,3.929,4.738,6.332c-8.792,3.956-21.544,9.697-38.254,17.22c-16.927,7.632-29.806,13.459-38.295,17.326
			c-0.947-2.556-1.604-5.173-1.951-7.782c-0.247-1.969-0.373-4.011-0.373-6.07c0-11.506,4.172-21.481,12.401-29.649
			C638.768,279.999,648.742,275.858,660.25,275.858z"/>
		<path d="M748.709,359.489h-7.927c-4.433,0-8.249-1.569-11.349-4.669c-3.155-3.095-4.756-6.879-4.756-11.247v-67.904h24.031
			c1.965,0,3.047-1.183,3.047-3.33c0-2.026-1.082-3.142-3.047-3.142h-24.031v-37.807c0-1.965-1.115-3.047-3.142-3.047
			s-3.142,1.082-3.142,3.047v112.183c0,6.152,2.209,11.446,6.562,15.731c4.354,4.354,9.679,6.562,15.826,6.562h7.927
			c1.965,0,3.047-1.149,3.047-3.235C751.756,360.604,750.674,359.489,748.709,359.489z"/>
	</g>
	<path d="M274.649,85.97c-126.455,0-228.965,102.511-228.965,228.966c0,126.454,102.51,228.965,228.965,228.965
		c126.454,0,228.965-102.511,228.965-228.965C503.614,188.481,401.103,85.97,274.649,85.97z M344.483,247.69
		c0-2.747,0.989-5.109,2.965-7.085c1.977-1.922,4.311-2.883,7.003-2.883h0.247c2.69,0,5.024,0.961,7.001,2.883
		c1.978,1.976,2.965,4.338,2.965,7.085v108.738c0,2.801-0.987,5.135-2.965,7.003c-1.977,1.977-4.311,2.964-7.001,2.964h-0.247
		c-2.692,0-5.026-0.987-7.003-2.964c-1.977-1.868-2.965-4.202-2.965-7.003V247.69z M308.438,241.182
		c2.25-2.251,4.97-3.377,8.155-3.377c3.13,0,5.821,1.126,8.073,3.377c2.308,2.198,3.46,4.889,3.46,8.073
		c0,3.241-1.152,5.96-3.46,8.155c-2.252,2.253-4.942,3.377-8.073,3.377c-3.185,0-5.905-1.124-8.155-3.377
		c-2.253-2.25-3.377-4.969-3.377-8.155C305.061,246.124,306.185,243.434,308.438,241.182z M326.644,281.547v74.88
		c0,2.801-0.989,5.135-2.966,7.003c-1.868,1.977-4.202,2.964-7.002,2.964h-0.165c-2.746,0-5.106-0.987-7.085-2.964
		c-1.976-1.868-2.963-4.202-2.963-7.003v-74.88c0-2.747,0.987-5.109,2.963-7.086c1.979-1.977,4.339-2.965,7.085-2.965h0.165
		c2.801,0,5.135,0.988,7.002,2.965C325.655,276.438,326.644,278.801,326.644,281.547z M137.166,357.992
		c-5.656,5.602-12.439,8.402-20.347,8.402H95.318c-2.692,0-5.024-0.987-7-2.964c-1.979-1.868-2.967-4.202-2.967-7.003v-0.165
		c0-2.746,0.989-5.106,2.967-7.085c1.976-1.977,4.309-2.964,7-2.964h22.325c2.415,0,4.447-0.826,6.096-2.473
		c1.647-1.646,2.471-3.679,2.471-6.096c0-3.021-1.566-5.3-4.697-6.838c-0.822-0.382-5.437-1.757-13.838-4.118
		c-6.536-1.922-11.397-4.449-14.581-7.579c-4.56-4.447-6.837-10.737-6.837-18.865c0-7.907,2.8-14.663,8.402-20.264
		c5.656-5.656,12.439-8.484,20.348-8.484h15.158c2.745,0,5.107,0.988,7.083,2.965c1.979,1.977,2.966,4.339,2.966,7.086v0.163
		c0,2.801-0.987,5.136-2.966,7.002c-1.976,1.977-4.338,2.966-7.083,2.966h-15.982c-2.417,0-4.449,0.823-6.096,2.47
		c-1.647,1.703-2.471,3.735-2.471,6.096c0,3.295,1.593,5.767,4.777,7.415c1.098,0.605,5.684,1.977,13.758,4.119
		c6.535,1.867,11.394,4.311,14.581,7.331c4.558,4.339,6.838,10.517,6.838,18.535C145.569,345.553,142.767,352.336,137.166,357.992z
		 M173.871,311.12v45.308c0,2.801-0.989,5.135-2.965,7.003c-1.979,1.977-4.312,2.964-7.003,2.964h-0.247
		c-2.692,0-5.024-0.987-7.002-2.964c-1.977-1.868-2.966-4.202-2.966-7.003V311.12c0-10.875,3.872-20.21,11.615-28.009
		c7.745-7.744,17.08-11.615,28.009-11.615c13.07,0,22.928,4.339,29.575,13.015c6.589-8.676,16.42-13.015,29.491-13.015
		c10.927,0,20.264,3.871,28.008,11.615C288.127,290.91,292,300.245,292,311.12v45.308c0,2.746-0.961,5.081-2.883,7.003
		c-1.977,1.977-4.339,2.964-7.085,2.964h-0.165c-2.801,0-5.135-0.987-7.002-2.964c-1.977-1.868-2.964-4.202-2.964-7.003V311.12
		c0-5.382-1.896-9.968-5.686-13.758c-3.788-3.788-8.402-5.683-13.838-5.683c-5.382,0-9.968,1.895-13.758,5.683
		c-3.788,3.79-5.684,8.375-5.684,13.758v45.308c0,2.801-0.987,5.135-2.965,7.003c-1.868,1.977-4.2,2.964-7.003,2.964h-0.163
		c-2.748,0-5.108-0.987-7.085-2.964c-1.977-1.868-2.965-4.202-2.965-7.003V311.12c0-5.382-1.894-9.968-5.684-13.758
		c-3.79-3.788-8.375-5.683-13.758-5.683s-9.966,1.895-13.756,5.683C175.765,301.152,173.871,305.738,173.871,311.12z
		 M364.632,416.35c-23.056,28.68-53.985,44.476-87.083,44.476c-33.101,0-64.028-15.796-87.087-44.476
		c-4.84-6.021-3.882-14.821,2.137-19.662c6.019-4.839,14.822-3.883,19.661,2.139c17.644,21.944,40.829,34.03,65.288,34.03
		c24.459,0,47.643-12.086,65.285-34.032c4.838-6.02,13.641-6.978,19.663-2.137C368.515,401.528,369.471,410.329,364.632,416.35z
		 M467.436,299.175c0.66,1.374,0.989,2.773,0.989,4.201c0,1.154-0.221,2.307-0.659,3.46c-0.935,2.581-2.692,4.449-5.271,5.602
		c-7.69,3.46-17.795,8.02-30.314,13.676c-15.544,7.029-24.66,11.176-27.35,12.438c4.172,5.273,10.68,7.909,19.522,7.909
		c5.876,0,11.204-1.729,15.981-5.189c4.667-3.405,7.936-7.797,9.804-13.181c1.592-4.502,4.776-6.756,9.556-6.756
		c3.404,0,6.122,1.43,8.154,4.285c1.263,1.757,1.895,3.596,1.895,5.519c0,1.153-0.22,2.336-0.659,3.542
		c-3.241,9.392-8.925,16.969-17.052,22.737c-8.237,5.985-17.463,8.978-27.679,8.978c-13.071,0-24.247-4.639-33.528-13.921
		c-9.281-9.281-13.921-20.456-13.921-33.528c0-13.069,4.64-24.245,13.921-33.527c9.281-9.28,20.457-13.922,33.528-13.922
		c9.445,0,18.068,2.582,25.867,7.743C457.962,284.293,463.7,290.938,467.436,299.175z"/>
	<path d="M404.994,299.834c-5.273,5.328-7.908,11.779-7.908,19.359v0.576l46.049-20.676c-4.065-4.833-10.326-7.25-18.782-7.25
		C416.774,291.843,410.32,294.507,404.994,299.834z"/>
</g>
</svg>
